Division,WeightClassKg,Place,Name,Team,BodyweightKg,Best3SquatKg,Best3BenchKg,Best3DeadliftKg,TotalKg,Equipment,Event,Sex
Boys,51.71,1,Austin Puetz,Paris,51.62,113.4,70.31,142.88,326.59,Single-ply,SBD,M
Boys,55.79,2,Juan Salazar,Bonham,51.89,120.2,68.04,127.01,315.25,Single-ply,SBD,M
Boys,51.71,3,Jeremiah Hogan,Lindsay,47.45,106.59,56.7,120.2,283.5,Single-ply,SBD,M
Boys,51.71,4,Michael Slack,Whitewright,51.07,99.79,70.31,113.4,283.5,Single-ply,SBD,M
Boys,51.71,5,Mario Giron,Pilot Point,47.54,102.06,65.77,113.4,281.23,Single-ply,SBD,M
Boys,51.71,6,Devin Brinkley,Muenster,50.44,102.06,45.36,90.72,238.14,Single-ply,SBD,M
Boys,51.71,7,Kolton Ware,Gainesville,49.99,79.38,38.56,92.99,210.92,Single-ply,SBD,M
Boys,51.71,8,Matt Howard #2,Celina,43.91,65.77,38.56,88.45,192.78,Single-ply,SBD,M
Boys,51.71,9,David Spencer,Krum,48.9,70.31,36.29,86.18,192.78,Single-ply,SBD,M
Boys,51.71,10,Sean Stoffels,Lindsay,40.28,68.04,36.29,79.38,183.7,Single-ply,SBD,M
Boys,51.71,11,Jacob Cunliffe,Bells,51.62,79.38,,88.45,167.83,Single-ply,SD,M
Boys,51.71,DQ,Garrett Gonzalez,Valley View,49.44,,,,,Single-ply,SD,M
Boys,55.79,1,Kobe Parker,Pottsboro,55.43,145.15,90.72,136.08,371.95,Single-ply,SBD,M
Boys,55.79,2,Jaden Smith #1,Krum,54.88,113.4,77.11,154.22,344.73,Single-ply,SBD,M
Boys,55.79,3,Ryan Slagle,Pottsboro,55.52,145.15,65.77,131.54,342.46,Single-ply,SBD,M
Boys,55.79,4,Marco Hernandez,Bonham,55.52,113.4,77.11,145.15,335.66,Single-ply,SBD,M
Boys,59.87,5,Fernendo Salis,Farmersville,55.97,113.4,79.38,122.47,315.25,Single-ply,SBD,M
Boys,55.79,6,Cole Owens,Bonham,54.43,122.47,65.77,124.74,312.98,Single-ply,SBD,M
Boys,55.79,7,Dru Benn,Little Elm,54.43,129.27,70.31,111.13,310.71,Single-ply,SBD,M
Boys,55.79,8,Porter Sciba,Aubrey,54.43,111.13,61.23,113.4,285.76,Single-ply,SBD,M
Boys,55.79,9,Derek Thacker,Valley View,55.07,106.59,52.16,113.4,272.16,Single-ply,SBD,M
Boys,55.79,10,Brennan Ross,Howe,55.07,97.52,58.97,99.79,256.28,Single-ply,SBD,M
Boys,55.79,11,Dawson Anderle,Lindsay,53.34,97.52,52.16,102.06,251.74,Single-ply,SBD,M
Boys,59.87,DQ,Raymond Bhikhai,Pilot Point,56.02,,,,,Single-ply,SBD,M
Boys,59.87,1,Erik Torres,Celina,59.42,167.83,111.13,174.63,453.59,Single-ply,SBD,M
Boys,59.87,2,Grant Carter,Sanger,58.88,158.76,104.33,158.76,421.84,Single-ply,SBD,M
Boys,59.87,3,Christian Castillo,Little Elm,58.6,158.76,88.45,158.76,405.97,Single-ply,SBD,M
Boys,59.87,4,Alex Montoya,Blue Ridge,59.69,129.27,79.38,158.76,367.41,Single-ply,SBD,M
Boys,67.13,5,Dawson McDonald,Howe,60.06,145.15,63.5,149.69,358.34,Single-ply,SBD,M
Boys,67.13,6,Kenny Adkins,Gunter,59.96,131.54,83.91,122.47,337.93,Single-ply,SBD,M
Boys,59.87,7,Kendall Shaw,Whitewright,58.88,120.2,65.77,122.47,308.44,Single-ply,SBD,M
Boys,67.13,8,Cesar Saucedo,Gainesville,60.06,127.01,54.43,127.01,308.44,Single-ply,SBD,M
Boys,59.87,9,Jacob Grubisa,Farmersville,56.52,120.2,56.7,122.47,299.37,Single-ply,SBD,M
Boys,59.87,10,Brendon Collum,Sadler S & S Cons,56.34,102.06,56.7,120.2,278.96,Single-ply,SBD,M
Boys,59.87,11,Zach Franzeo,Sadler S & S Cons,59.06,90.72,49.9,117.93,258.55,Single-ply,SBD,M
Boys,59.87,DQ,Zach Braswell,Howe,58.15,,,,,Single-ply,SBD,M
Boys,67.13,1,Will Carter,Sanger,65.05,192.78,113.4,217.72,523.9,Single-ply,SBD,M
Boys,67.13,2,Dylan Serna,Krum,66.5,197.31,113.4,213.19,523.9,Single-ply,SBD,M
Boys,67.13,3,Solomon Titus,Leonard,64.95,188.24,108.86,201.85,498.95,Single-ply,SBD,M
Boys,74.84,4,Ian Concepcion,Krum,67.36,190.51,88.45,219.99,498.95,Single-ply,SBD,M
Boys,67.13,5,Tyler Williams,Aubrey,65.23,174.63,90.72,183.7,449.06,Single-ply,SBD,M
Boys,67.13,6,Rodrigo Castillo,Farmersville,65.23,147.42,72.57,172.37,392.36,Single-ply,SBD,M
Boys,67.13,7,Jamar Sanders,Paris,65.77,145.15,79.38,158.76,383.29,Single-ply,SBD,M
Boys,67.13,8,Taylor Barrett,Pilot Point,64.5,138.35,86.18,151.95,376.48,Single-ply,SBD,M
Boys,67.13,9,Deiontay Cornelius,Little Elm,60.33,154.22,72.57,147.42,374.21,Single-ply,SBD,M
Boys,67.13,10,Clayton Elsey,Sanger,60.78,145.15,79.38,142.88,367.41,Single-ply,SBD,M
Boys,74.84,11,Paul Lutz,Leonard,67.31,131.54,63.5,172.37,367.41,Single-ply,SBD,M
Boys,67.13,12,Cody Hunter,Sanger,63.05,129.27,81.65,149.69,360.61,Single-ply,SBD,M
Boys,74.84,13,Rance Sanborn,Callisburg,67.31,133.81,79.38,142.88,356.07,Single-ply,SBD,M
Boys,67.13,14,Lane Serna,Krum,63.05,129.27,72.57,147.42,349.27,Single-ply,SBD,M
Boys,67.13,15,Martin Mijares,Bells,66.22,124.74,68.04,138.35,331.12,Single-ply,SBD,M
Boys,67.13,16,John Stanley,Van Alstyne,64.95,124.74,70.31,129.27,324.32,Single-ply,SBD,M
Boys,67.13,17,Nick James,Melissa,61.51,106.59,70.31,136.08,312.98,Single-ply,SBD,M
Boys,67.13,18,Frank Casterena,Collinsville,65.41,124.74,56.7,131.54,312.98,Single-ply,SBD,M
Boys,67.13,19,Tanner Gardiner,Aubrey,64.23,131.54,,163.29,294.84,Single-ply,SD,M
Boys,67.13,20,Tanner DeBord,Lindsay,65.23,111.13,58.97,113.4,283.5,Single-ply,SBD,M
Boys,67.13,21,Burke Hosier,Whitewright,64.5,138.35,,136.08,274.42,Single-ply,SD,M
Boys,67.13,22,Nate Patterson,Collinsville,60.24,113.4,,124.74,238.14,Single-ply,SD,M
Boys,67.13,23,X-Zavius Gray,Paris,64.77,,,174.63,174.63,Single-ply,D,M
Boys,74.84,DQ,Mario Corona,Gainesville,67.31,145.15,,,,Single-ply,SD,M
Boys,74.84,1,Ty Slaughter,Whitesboro,71.94,224.53,136.08,224.53,585.13,Single-ply,SBD,M
Boys,74.84,2,Joaquin Lopez,Howe,74.21,226.8,122.47,229.06,578.33,Single-ply,SBD,M
Boys,74.84,3,Jake Haker,Van Alstyne,73.03,181.44,113.4,188.24,483.08,Single-ply,SBD,M
Boys,74.84,4,Jordan Fortner,Melissa,74.75,163.29,111.13,195.04,469.47,Single-ply,SBD,M
Boys,74.84,5,Tristan Coglon,Bells,69.22,167.83,99.79,172.37,439.98,Single-ply,SBD,M
Boys,74.84,6,Triston Pryor,Van Alstyne,73.03,161.03,88.45,170.1,419.57,Single-ply,SBD,M
Boys,74.84,7,Questin Stumpff,Pottsboro,69.49,149.69,97.52,147.42,394.63,Single-ply,SBD,M
Boys,74.84,8,Ethan Ford,Krum,74.3,138.35,81.65,167.83,387.82,Single-ply,SBD,M
Boys,74.84,9,Christian Jacoby,Valley View,71.12,138.35,79.38,154.22,371.95,Single-ply,SBD,M
Boys,74.84,10,Antonio Barragan,Anna,67.49,138.35,90.72,140.61,369.68,Single-ply,SBD,M
Boys,74.84,11,Christian Martinez,Krum,67.68,142.88,68.04,158.76,369.68,Single-ply,SBD,M
Boys,82.1,12,Nick Rivera,Gunter,75.07,136.08,90.72,131.54,358.34,Single-ply,SBD,M
Boys,74.84,13,Nick Capchart,Bonham,68.49,131.54,70.31,154.22,356.07,Single-ply,SBD,M
Boys,74.84,14,Zane Kemp,Muenster,71.21,161.03,65.77,129.27,356.07,Single-ply,SBD,M
Boys,74.84,15,Joseph Villanueva,Blue Ridge,72.3,124.74,56.7,147.42,328.85,Single-ply,SBD,M
Boys,74.84,16,Daniel VanNorman,Van Alstyne,69.31,113.4,77.11,124.74,315.25,Single-ply,SBD,M
Boys,74.84,17,Reece Miller,Bonham,70.58,120.2,63.5,122.47,306.17,Single-ply,SBD,M
Boys,74.84,18,Alec Beckett,Pilot Point,69.85,124.74,,136.08,260.82,Single-ply,SD,M
Boys,74.84,DQ,Foster Morris,Pilot Point,70.49,,,,,Single-ply,SD,M
Boys,74.84,DQ,Brady Butcher,Gainesville,73.48,,,,,Single-ply,SD,M
Boys,74.84,DQ,John Hill,Whitewright,74.3,115.67,,,,Single-ply,SD,M
Boys,89.81,1,Kenton Manis,Bonham,82.28,226.8,120.2,222.26,569.26,Single-ply,SBD,M
Boys,82.1,2,Foster Frisk,Celina,78.61,206.38,108.86,215.46,530.7,Single-ply,SBD,M
Boys,82.1,3,Dalton Bartel,Muenster,79.92,181.44,113.4,192.78,487.61,Single-ply,SBD,M
Boys,82.1,4,Matthew Jelen,Krum,80.2,176.9,122.47,188.24,487.61,Single-ply,SBD,M
Boys,82.1,5,Styven Canchola,Pilot Point,78.56,176.9,122.47,179.17,478.54,Single-ply,SBD,M
Boys,82.1,6,Adam White,Van Alstyne,80.47,163.29,120.2,195.04,478.54,Single-ply,SBD,M
Boys,82.1,7,Trenton Brawner,Celina,79.38,158.76,102.06,208.65,469.47,Single-ply,SBD,M
Boys,89.81,8,Jacob Royal,Gainesville,82.28,183.7,104.33,174.63,462.66,Single-ply,SBD,M
Boys,82.1,9,Chris de la Cruz,Pottsboro,79.74,167.83,115.67,176.9,460.4,Single-ply,SBD,M
Boys,82.1,10,Jarrett Wilson,Pilot Point,76.29,183.7,129.27,142.88,455.86,Single-ply,SBD,M
Boys,82.1,11,Kyle Klement,Muenster,76.57,154.22,104.33,170.1,428.64,Single-ply,SBD,M
Boys,82.1,12,Edgar Ramirez,Gainesville,78.93,181.44,81.65,158.76,421.84,Single-ply,SBD,M
Boys,82.1,13,Tyler Weger,Sanger,79.47,163.29,97.52,149.69,410.5,Single-ply,SBD,M
Boys,82.1,14,Travis Vogel,Muenster,77.47,154.22,70.31,161.03,385.55,Single-ply,SBD,M
Boys,82.1,15,Trent Alexander,Van Alstyne,81.83,151.95,83.91,147.42,383.29,Single-ply,SBD,M
Boys,82.1,16,Zach Rhone,Leonard,79.11,117.93,74.84,185.97,378.75,Single-ply,SBD,M
Boys,82.1,17,Brandon Murphey,Whitesboro,77.56,149.69,88.45,136.08,374.21,Single-ply,SBD,M
Boys,89.81,18,Dalton Randolph,Valley View,82.28,154.22,83.91,136.08,374.21,Single-ply,SBD,M
Boys,82.1,19,Trevor Buckaloo,Bonham,81.01,138.35,81.65,145.15,365.14,Single-ply,SBD,M
Boys,82.1,20,Tanner Hartsfield,Howe,77.11,131.54,77.11,145.15,353.8,Single-ply,SBD,M
Boys,82.1,21,Isaac Morrison,Howe,80.51,138.35,70.31,127.01,335.66,Single-ply,SBD,M
Boys,82.1,22,Ethan Burts,Van Alstyne,81.74,115.67,88.45,129.27,333.39,Single-ply,SBD,M
Boys,82.1,DQ,Sterling Houk,Whitewright,77.29,147.42,,,,Single-ply,SBD,M
Boys,82.1,DQ,Chase Corder,Celina,75.66,133.81,,,,Single-ply,SBD,M
Boys,89.81,DQ,Drew Martin,Collinsville,82.33,129.27,83.91,,,Single-ply,SBD,M
Boys,82.1,DQ,Alec Kyle,Anna,78.65,124.74,97.52,,,Single-ply,SBD,M
Boys,89.81,1,John Groff,Pilot Point,88.81,254.01,156.49,263.08,673.58,Single-ply,SBD,M
Boys,89.81,2,Garrett Lansford,Anna,89.81,263.08,165.56,226.8,655.44,Single-ply,SBD,M
Boys,89.81,3,Sam Heath,Aubrey,87.18,204.12,156.49,206.38,566.99,Single-ply,SBD,M
Boys,89.81,4,Calvin Stang,Aubrey,87.91,172.37,120.2,226.8,519.36,Single-ply,SBD,M
Boys,89.81,5,Ruben Hernandez #1,Gainesville,89.45,192.78,108.86,210.92,512.56,Single-ply,SBD,M
Boys,89.81,6,Chase Pinion,Anna,85.64,181.44,127.01,192.78,501.22,Single-ply,SBD,M
Boys,89.81,7,Kendall Alexander,Paris,88.9,188.24,111.13,201.85,501.22,Single-ply,SBD,M
Boys,89.81,8,Collin Jones,Sanger,89.09,183.7,117.93,195.04,496.68,Single-ply,SBD,M
Boys,89.81,9,Tristan Farber,Leonard,89.09,165.56,124.74,167.83,458.13,Single-ply,SBD,M
Boys,89.81,10,Terry Lawrence,Van Alstyne,83.82,176.9,102.06,163.29,442.25,Single-ply,SBD,M
Boys,89.81,11,Anthony White #2,Gainesville,88.72,170.1,92.99,172.37,435.45,Single-ply,SBD,M
Boys,89.81,12,Jesse De Leon,Blue Ridge,84.37,147.42,111.13,165.56,424.11,Single-ply,SBD,M
Boys,89.81,13,Lazaro Aldaro,Collinsville,85.55,147.42,92.99,181.44,421.84,Single-ply,SBD,M
Boys,89.81,14,Anthony Jordan,Pottsboro,84.82,154.22,88.45,149.69,392.36,Single-ply,SBD,M
Boys,89.81,15,Dj Samuels,Paris,86.73,136.08,88.45,165.56,390.09,Single-ply,SBD,M
Boys,99.79,16,Ezequiel Trejo,Pilot Point,89.99,133.81,92.99,158.76,385.55,Single-ply,SBD,M
Boys,89.81,17,Cole English,Melissa,85.37,138.35,97.52,140.61,376.48,Single-ply,SBD,M
Boys,89.81,18,Gilberto Rivera,Gainesville,86.18,147.42,65.77,136.08,349.27,Single-ply,SBD,M
Boys,89.81,DQ,Jack Verhoff,Aubrey,88.99,179.17,,,,Single-ply,SBD,M
Boys,89.81,DQ,Hunter Montoya,Melissa,89.27,163.29,,,,Single-ply,SBD,M
Boys,89.81,DQ,Dalton Hess,Muenster,85.46,185.97,77.11,,,Single-ply,SBD,M
Boys,89.81,DQ,David Ferrier,Melissa,85.82,,,,,Single-ply,SBD,M
Boys,89.81,DQ,Derek Shelby,Sanger,86,231.33,158.76,,,Single-ply,SBD,M
Boys,99.79,1,Keith Ngondo,Little Elm,92.08,263.08,136.08,242.67,641.83,Single-ply,SBD,M
Boys,99.79,2,Thomas Morales,Whitesboro,98.25,251.74,145.15,219.99,616.89,Single-ply,SBD,M
Boys,99.79,3,James Kemp,Anna,97.61,222.26,129.27,242.67,594.21,Single-ply,SBD,M
Boys,99.79,4,Geoffrey Smith,Paris,99.61,204.12,124.74,226.8,555.65,Single-ply,SBD,M
Boys,99.79,5,Mark Steinhoff,Aubrey,94.8,188.24,158.76,206.38,553.38,Single-ply,SBD,M
Boys,99.79,6,Chancey Hull,Aubrey,93.98,192.78,154.22,204.12,551.11,Single-ply,SBD,M
Boys,99.79,7,Zach LaRue,Callisburg,91.9,213.19,136.08,181.44,530.7,Single-ply,SBD,M
Boys,99.79,8,Kelvin McKee,Little Elm,98.43,206.38,102.06,222.26,530.7,Single-ply,SBD,M
Boys,99.79,9,Caleb Hill,Bonham,97.7,219.99,99.79,206.38,526.17,Single-ply,SBD,M
Boys,99.79,10,Grayson Briney,Sanger,92.26,195.04,92.99,174.63,462.66,Single-ply,SBD,M
Boys,99.79,11,Clay Stephens,Bonham,98.52,158.76,90.72,170.1,419.57,Single-ply,SBD,M
Boys,99.79,12,Aston McDaniel,Pottsboro,93.98,149.69,90.72,158.76,399.16,Single-ply,SBD,M
Boys,99.79,13,Cj Armijo,Celina,94.08,142.88,102.06,124.74,369.68,Single-ply,SBD,M
Boys,99.79,14,Tristen Torres,Sadler S & S Cons,91.99,147.42,77.11,140.61,365.14,Single-ply,SBD,M
Boys,99.79,15,Ethan England,Paris,96.71,,106.59,199.58,306.17,Single-ply,BD,M
Boys,99.79,16,Joel Menjiva,Howe,96.43,147.42,,133.81,281.23,Single-ply,SD,M
Boys,99.79,17,Javier Venegas,Valley View,97.7,158.76,86.18,,244.94,Single-ply,SB,M
Boys,99.79,DQ,Ray Lomas,Valley View,93.98,,,,,Single-ply,SB,M
Boys,99.79,DQ,Jawun Sims,Paris,98.79,170.1,,,,Single-ply,SB,M
Boys,99.79,DQ,Max Castillo,Melissa,98.79,149.69,99.79,,,Single-ply,SB,M
Boys,109.77,1,Landon Hallmark,Little Elm,108.77,267.62,136.08,258.55,662.24,Single-ply,SBD,M
Boys,109.77,2,Conner Barnes,Sanger,101.06,238.14,181.44,215.46,635.03,Single-ply,SBD,M
Boys,109.77,3,Ethan Lawson,Sadler S & S Cons,108.5,215.46,140.61,222.26,578.33,Single-ply,SBD,M
Boys,109.77,4,Shawn Shugart,Callisburg,104.69,233.6,131.54,195.04,560.19,Single-ply,SBD,M
Boys,109.77,5,Richard Morones,Little Elm,105.32,233.6,111.13,197.31,542.04,Single-ply,SBD,M
Boys,109.77,6,Cody McCoy,Little Elm,107.05,206.38,115.67,215.46,537.51,Single-ply,SBD,M
Boys,109.77,7,Chris Burgess,Callisburg,100.97,197.31,133.81,190.51,521.63,Single-ply,SBD,M
Boys,109.77,8,Joshua Melvin,Bells,109.23,204.12,120.2,181.44,505.76,Single-ply,SBD,M
Boys,109.77,9,Sheldon Parkman,Howe,105.96,199.58,104.33,188.24,492.15,Single-ply,SBD,M
Boys,109.77,10,Ryan Langley,Sanger,102.97,199.58,120.2,165.56,485.34,Single-ply,SBD,M
Boys,109.77,11,Kent Haskett,Whitewright,105.51,185.97,113.4,183.7,483.08,Single-ply,SBD,M
Boys,109.77,12,Ryan Folk,Van Alstyne,106.5,181.44,124.74,174.63,480.81,Single-ply,SBD,M
Boys,109.77,13,Dakota Helm,Paris,108.23,185.97,95.25,197.31,478.54,Single-ply,SBD,M
Boys,109.77,14,Russell Carey,Whitesboro,104.78,188.24,90.72,181.44,460.4,Single-ply,SBD,M
Boys,109.77,15,Tim Edmonds,Pottsboro,101.7,181.44,90.72,185.97,458.13,Single-ply,SBD,M
Boys,109.77,16,Triston Robinson,Whitesboro,102.97,158.76,115.67,167.83,442.25,Single-ply,SBD,M
Boys,109.77,17,Hunter Flannigan,Pottsboro,104.42,151.95,72.57,154.22,378.75,Single-ply,SBD,M
Boys,109.77,18,Zach Walton,Pottsboro,104.78,181.44,,190.51,371.95,Single-ply,SD,M
Boys,109.77,19,Dennis Coleman,Paris,103.69,,117.93,215.46,333.39,Single-ply,BD,M
Boys,109.77,20,Kayl Powers,Collinsville,108.86,163.29,,,163.29,Single-ply,S,M
Boys,124.74,1,Brance Watts,Sanger,112.4,215.46,131.54,195.04,542.04,Single-ply,SBD,M
Boys,124.74,2,Carlos Ponce,Krum,113.22,213.19,124.74,195.04,532.97,Single-ply,SBD,M
Boys,124.74,3,Dawson Medler,Pottsboro,123.1,192.78,129.27,181.44,503.49,Single-ply,SBD,M
Boys,124.74,4,Skyler Finnigan,Little Elm,110.5,204.12,92.99,183.7,480.81,Single-ply,SBD,M
Boys,124.74+,5,Riley Coker,Paris,124.83,190.51,99.79,190.51,480.81,Single-ply,SBD,M
Boys,124.74,6,Francisco Estrada,Pilot Point,120.11,174.63,111.13,190.51,476.27,Single-ply,SBD,M
Boys,124.74,7,Byron Muse,Paris,117.03,147.42,97.52,165.56,410.5,Single-ply,SBD,M
Boys,124.74,8,Brandon Miller,Bonham,116.57,158.76,88.45,133.81,381.02,Single-ply,SBD,M
Boys,124.74,9,Michael Hamilton,Sadler S & S Cons,115.21,122.47,90.72,163.29,376.48,Single-ply,SBD,M
Boys,124.74,10,Dominic Little,Whitewright,111.49,133.81,70.31,124.74,328.85,Single-ply,SBD,M
Boys,124.74,DQ,Marvin Smith #2,Farmersville,116.57,,,,,Single-ply,SBD,M
Boys,124.74,DQ,Zukari Long,Gainesville,117.93,,,,,Single-ply,SBD,M
Boys,124.74,DQ,Basil Gist,Pilot Point,110.77,188.24,,,,Single-ply,SBD,M
Boys,124.74,DQ,Austin Reese,Melissa,121.93,,,,,Single-ply,SBD,M
Boys,124.74+,1,Trey Marks,Little Elm,143.97,288.03,170.1,238.14,696.26,Single-ply,SBD,M
Boys,124.74+,2,Dillon Gage,Sadler S & S Cons,126.01,263.08,204.12,213.19,680.39,Single-ply,SBD,M
Boys,124.74+,3,Cameron Adkins,Leonard,125.83,226.8,138.35,233.6,598.74,Single-ply,SBD,M
Boys,124.74+,4,Kasey Misenheimer,Whitesboro,131.81,249.48,131.54,217.72,598.74,Single-ply,SBD,M
Boys,124.74+,5,Qurdale Huff,Paris,158.85,231.33,142.88,210.92,585.13,Single-ply,SBD,M
Boys,124.74+,6,Larry Osterman,Aubrey,136.98,226.8,158.76,195.04,580.6,Single-ply,SBD,M
Boys,124.74+,7,Dillon Chambers,Sadler S & S Cons,127.01,176.9,142.88,181.44,501.22,Single-ply,SBD,M
Boys,124.74+,8,Garrett Smith,Callisburg,145.15,195.04,106.59,188.24,489.88,Single-ply,SBD,M
Boys,124.74+,9,Michael Pruiett,Leonard,125.65,154.22,95.25,185.97,435.45,Single-ply,SBD,M
Boys,124.74+,10,Christian Carraso,Pottsboro,133.63,145.15,83.91,197.31,426.38,Single-ply,SBD,M
Boys,124.74+,11,Luke Melton,Celina,133.9,151.95,102.06,170.1,424.11,Single-ply,SBD,M
Boys,124.74+,12,Alec Dickinson,Bells,131.18,154.22,90.72,158.76,403.7,Single-ply,SBD,M
Boys,124.74+,13,Tony Ramirez,Anna,126.55,174.63,,170.1,344.73,Single-ply,SD,M
Boys,124.74+,14,Dalton Carver,Sadler S & S Cons,157.4,151.95,,185.97,337.93,Single-ply,SD,M
